^C:\USERS\MATTHEW\DESKTOP\CDT464_OTHELLO_BOT\CDT464_OTHELLO_BOT\GAME.CPP|C:\USERS\MATTHEW\DESKTOP\CDT464_OTHELLO_BOT\CDT464_OTHELLO_BOT\GAME.H|C:\USERS\MATTHEW\DESKTOP\CDT464_OTHELLO_BOT\CDT464_OTHELLO_BOT\GREEDYBOT.CPP|C:\USERS\MATTHEW\DESKTOP\CDT464_OTHELLO_BOT\CDT464_OTHELLO_BOT\HASHFUNCTION.CPP|C:\USERS\MATTHEW\DESKTOP\CDT464_OTHELLO_BOT\CDT464_OTHELLO_BOT\MACHINELEARNINGBOT.CPP|C:\USERS\MATTHEW\DESKTOP\CDT464_OTHELLO_BOT\CDT464_OTHELLO_BOT\MAIN.CPP
C:\USERS\MATTHEW\DESKTOP\CDT464_OTHELLO_BOT\CDT464_OTHELLO_BOT\X64\DEBUG\VC141.PDB
C:\USERS\MATTHEW\DESKTOP\CDT464_OTHELLO_BOT\CDT464_OTHELLO_BOT\X64\DEBUG\VC141.IDB
C:\USERS\MATTHEW\DESKTOP\CDT464_OTHELLO_BOT\CDT464_OTHELLO_BOT\X64\DEBUG\MAIN.OBJ
C:\USERS\MATTHEW\DESKTOP\CDT464_OTHELLO_BOT\CDT464_OTHELLO_BOT\X64\DEBUG\MACHINELEARNINGBOT.OBJ
C:\USERS\MATTHEW\DESKTOP\CDT464_OTHELLO_BOT\CDT464_OTHELLO_BOT\X64\DEBUG\HASHFUNCTION.OBJ
C:\USERS\MATTHEW\DESKTOP\CDT464_OTHELLO_BOT\CDT464_OTHELLO_BOT\X64\DEBUG\GREEDYBOT.OBJ
C:\USERS\MATTHEW\DESKTOP\CDT464_OTHELLO_BOT\CDT464_OTHELLO_BOT\X64\DEBUG\GAME.OBJ
^C:\USERS\MATTHEW\DESKTOP\CDT464_OTHELLO_BOT\CDT464_OTHELLO_BOT\GAME.CPP
C:\USERS\MATTHEW\DESKTOP\CDT464_OTHELLO_BOT\CDT464_OTHELLO_BOT\X64\DEBUG\VC141.PDB
^C:\USERS\MATTHEW\DESKTOP\CDT464_OTHELLO_BOT\CDT464_OTHELLO_BOT\GAME.H
C:\USERS\MATTHEW\DESKTOP\CDT464_OTHELLO_BOT\CDT464_OTHELLO_BOT\X64\DEBUG\VC141.PDB
^C:\USERS\MATTHEW\DESKTOP\CDT464_OTHELLO_BOT\CDT464_OTHELLO_BOT\GREEDYBOT.CPP
C:\USERS\MATTHEW\DESKTOP\CDT464_OTHELLO_BOT\CDT464_OTHELLO_BOT\X64\DEBUG\VC141.PDB
^C:\USERS\MATTHEW\DESKTOP\CDT464_OTHELLO_BOT\CDT464_OTHELLO_BOT\HASHFUNCTION.CPP
C:\USERS\MATTHEW\DESKTOP\CDT464_OTHELLO_BOT\CDT464_OTHELLO_BOT\X64\DEBUG\VC141.PDB
^C:\USERS\MATTHEW\DESKTOP\CDT464_OTHELLO_BOT\CDT464_OTHELLO_BOT\MACHINELEARNINGBOT.CPP
C:\USERS\MATTHEW\DESKTOP\CDT464_OTHELLO_BOT\CDT464_OTHELLO_BOT\X64\DEBUG\VC141.PDB
^C:\USERS\MATTHEW\DESKTOP\CDT464_OTHELLO_BOT\CDT464_OTHELLO_BOT\MAIN.CPP
C:\USERS\MATTHEW\DESKTOP\CDT464_OTHELLO_BOT\CDT464_OTHELLO_BOT\X64\DEBUG\VC141.PDB
